{"content":[{"id":1349,"name":"Report_29.06.2024 1:07:24","createdAt":"2024-06-28T21:07:26.259Z","updatedAt":"2024-06-28T21:07:26.274Z","createdByUserEmail":"krkzx26828@qwer.ru","updatedByUserEmail":"krkzx26828@qwer.ru","testIdSet":[],"labelSet":[]},{"id":1348,"name":"Report_29.06.2024 1:06:17","createdAt":"2024-06-28T21:06:19.069Z","updatedAt":"2024-06-28T21:06:19.095Z","createdByUserEmail":"krkzx26828@qwer.ru","updatedByUserEmail":"krkzx26828@qwer.ru","testIdSet":[],"labelSet":[]},{"id":1347,"name":"Report_29.06.2024 1:04:25","createdAt":"2024-06-28T21:04:27.197Z","updatedAt":"2024-06-28T21:04:27.212Z","createdByUserEmail":"fgoas29686@xz.com","updatedByUserEmail":"fgoas29686@xz.com","testIdSet":[],"labelSet":[]},{"id":1346,"name":"Report_29.06.2024 1:03:18","createdAt":"2024-06-28T21:03:20.078Z","updatedAt":"2024-06-28T21:03:20.099Z","createdByUserEmail":"zqerb30095@mail.ru","updatedByUserEmail":"zqerb30095@mail.ru","testIdSet":[],"labelSet":[]},{"id":1345,"name":"Report_29.06.2024 1:01:24","createdAt":"2024-06-28T21:01:26.130Z","updatedAt":"2024-06-28T21:01:26.144Z","createdByUserEmail":"kokwe2225@edx.ru","updatedByUserEmail":"kokwe2225@edx.ru","testIdSet":[],"labelSet":[]},{"id":1344,"name":"Report_29.06.2024 1:00:28","createdAt":"2024-06-28T21:00:30.761Z","updatedAt":"2024-06-28T21:00:30.776Z","createdByUserEmail":"krkzx26828@qwer.ru","updatedByUserEmail":"krkzx26828@qwer.ru","testIdSet":[],"labelSet":[]},{"id":1343,"name":"Report_29.06.2024 0:59:17","createdAt":"2024-06-28T20:59:19.220Z","updatedAt":"2024-06-28T20:59:19.249Z","createdByUserEmail":"ochyl32544@edx.ru","updatedByUserEmail":"ochyl32544@edx.ru","testIdSet":[],"labelSet":[]},{"id":1342,"name":"Report_29.06.2024 0:58:24","createdAt":"2024-06-28T20:58:26.121Z","updatedAt":"2024-06-28T20:58:26.155Z","createdByUserEmail":"epwxg18049@mexico.com","updatedByUserEmail":"epwxg18049@mexico.com","testIdSet":[],"labelSet":[]},{"id":1341,"name":"Report_29.06.2024 0:56:14","createdAt":"2024-06-28T20:56:16.208Z","updatedAt":"2024-06-28T20:56:16.225Z","createdByUserEmail":"rzddl695@qwer.ru","updatedByUserEmail":"rzddl695@qwer.ru","testIdSet":[],"labelSet":[]}],"pageable":{"sort":{"sorted":true,"unsorted":false,"empty":false},"pageNumber":0,"pageSize":9,"offset":0,"unpaged":false,"paged":true},"totalElements":192,"totalPages":22,"last":false,"first":true,"sort":{"sorted":true,"unsorted":false,"empty":false},"numberOfElements":9,"size":9,"number":0,"empty":false}