{"content":[{"id":1942,"teamId":13,"userId":1,"email":"admin@boomq.io","userDisplayName":null,"permissionList":["ADMIN"],"invitationStatus":"ACCEPTED","inviteUrl":null,"expiredAt":null,"createAt":"2024-06-24T09:33:16.030Z","updatedAt":"2024-06-24T09:33:16.030Z"},{"id":1946,"teamId":13,"userId":1870,"email":"user_9@mail.ru","userDisplayName":"user_9","permissionList":["MANAGE_USERS_IN_ORG","RUN","VIEW","ADMIN","EDIT"],"invitationStatus":"ACCEPTED","inviteUrl":null,"expiredAt":null,"createAt":"2024-06-24T09:36:12.791Z","updatedAt":"2024-06-24T09:36:19.171Z"}],"pageable":{"sort":{"sorted":false,"unsorted":true,"empty":true},"pageSize":2,"pageNumber":0,"offset":0,"unpaged":false,"paged":true},"last":false,"totalElements":12,"totalPages":6,"first":true,"sort":{"sorted":false,"unsorted":true,"empty":true},"numberOfElements":2,"size":2,"number":0,"empty":false}